%YAML 1.1
%TAG !u! tag:unity3d.com,2011:
--- !u!1 &2607006418873517828
GameObject:
  m_ObjectHideFlags: 0
  m_CorrespondingSourceObject: {fileID: 0}
  m_PrefabInstance: {fileID: 0}
  m_PrefabAsset: {fileID: 0}
  serializedVersion: 6
  m_Component:
  - component: {fileID: 8506701585853028499}
  - component: {fileID: 8155015846417998423}
  - component: {fileID: 4998230981279036617}
  - component: {fileID: 7685826281668896856}
  m_Layer: 0
  m_Name: Temperature_Area
  m_TagString: Untagged
  m_Icon: {fileID: 0}
  m_NavMeshLayer: 0
  m_StaticEditorFlags: 0
  m_IsActive: 1
--- !u!4 &8506701585853028499
Transform:
  m_ObjectHideFlags: 0
  m_CorrespondingSourceObject: {fileID: 0}
  m_PrefabInstance: {fileID: 0}
  m_PrefabAsset: {fileID: 0}
  m_GameObject: {fileID: 2607006418873517828}
  m_LocalRotation: {x: 0, y: 0, z: 0, w: 1}
  m_LocalPosition: {x: 0, y: 0, z: 0}
  m_LocalScale: {x: 20, y: 20, z: 20}
  m_ConstrainProportionsScale: 1
  m_Children: []
  m_Father: {fileID: 0}
  m_RootOrder: -1
  m_LocalEulerAnglesHint: {x: 0, y: 0, z: 0}
--- !u!114 &8155015846417998423
MonoBehaviour:
  m_ObjectHideFlags: 0
  m_CorrespondingSourceObject: {fileID: 0}
  m_PrefabInstance: {fileID: 0}
  m_PrefabAsset: {fileID: 0}
  m_GameObject: {fileID: 2607006418873517828}
  m_Enabled: 1
  m_EditorHideFlags: 0
  m_Script: {fileID: 11500000, guid: aa968638040376948b6cea94f75b1d04, type: 3}
  m_Name: 
  m_EditorClassIdentifier: 
  temperatureRange:
    min: 0
    max: 40
  temperature: 20
  useProximity: 0
--- !u!114 &4998230981279036617
MonoBehaviour:
  m_ObjectHideFlags: 0
  m_CorrespondingSourceObject: {fileID: 0}
  m_PrefabInstance: {fileID: 0}
  m_PrefabAsset: {fileID: 0}
  m_GameObject: {fileID: 2607006418873517828}
  m_Enabled: 1
  m_EditorHideFlags: 0
  m_Script: {fileID: 11500000, guid: 6a9f5c22c8d455d409d6a8b40ba588d3, type: 3}
  m_Name: 
  m_EditorClassIdentifier: 
  color: {r: 0.49803922, g: 0, b: 0.49803922, a: 1}
  hideOnPlay: 0
--- !u!114 &7685826281668896856
MonoBehaviour:
  m_ObjectHideFlags: 0
  m_CorrespondingSourceObject: {fileID: 0}
  m_PrefabInstance: {fileID: 0}
  m_PrefabAsset: {fileID: 0}
  m_GameObject: {fileID: 2607006418873517828}
  m_Enabled: 1
  m_EditorHideFlags: 0
  m_Script: {fileID: 11500000, guid: c23f7b3f0a744a247976c312a6a39780, type: 3}
  m_Name: 
  m_EditorClassIdentifier: 
  updateDelay: -1
  radius: 0
