%YAML 1.1
%TAG !u! tag:unity3d.com,2011:
--- !u!1 &1636336655521197463
GameObject:
  m_ObjectHideFlags: 0
  m_CorrespondingSourceObject: {fileID: 0}
  m_PrefabInstance: {fileID: 0}
  m_PrefabAsset: {fileID: 0}
  serializedVersion: 6
  m_Component:
  - component: {fileID: 3891332527241381494}
  - component: {fileID: 7723578845386363167}
  - component: {fileID: 4953111852322598724}
  - component: {fileID: 3728739364332872010}
  m_Layer: 0
  m_Name: Tree_Cone_Winter_Bundle
  m_TagString: Untagged
  m_Icon: {fileID: 0}
  m_NavMeshLayer: 0
  m_StaticEditorFlags: 0
  m_IsActive: 1
--- !u!4 &3891332527241381494
Transform:
  m_ObjectHideFlags: 0
  m_CorrespondingSourceObject: {fileID: 0}
  m_PrefabInstance: {fileID: 0}
  m_PrefabAsset: {fileID: 0}
  m_GameObject: {fileID: 1636336655521197463}
  m_LocalRotation: {x: -0, y: -0, z: -0, w: 1}
  m_LocalPosition: {x: 0, y: 0, z: 840}
  m_LocalScale: {x: 100, y: 0.2, z: 100}
  m_ConstrainProportionsScale: 0
  m_Children: []
  m_Father: {fileID: 0}
  m_RootOrder: -1
  m_LocalEulerAnglesHint: {x: 0, y: 0, z: 0}
--- !u!114 &7723578845386363167
MonoBehaviour:
  m_ObjectHideFlags: 0
  m_CorrespondingSourceObject: {fileID: 0}
  m_PrefabInstance: {fileID: 0}
  m_PrefabAsset: {fileID: 0}
  m_GameObject: {fileID: 1636336655521197463}
  m_Enabled: 1
  m_EditorHideFlags: 0
  m_Script: {fileID: 11500000, guid: 96074e0cf1195764f888dc54eb3a4e51, type: 3}
  m_Name: 
  m_EditorClassIdentifier: 
  color: {r: 0, g: 1, b: 0.4869604, a: 1}
  hideOnPlay: 0
--- !u!114 &4953111852322598724
MonoBehaviour:
  m_ObjectHideFlags: 0
  m_CorrespondingSourceObject: {fileID: 0}
  m_PrefabInstance: {fileID: 0}
  m_PrefabAsset: {fileID: 0}
  m_GameObject: {fileID: 1636336655521197463}
  m_Enabled: 0
  m_EditorHideFlags: 0
  m_Script: {fileID: 11500000, guid: b01f76f577320124d98d0586ba69b51b, type: 3}
  m_Name: 
  m_EditorClassIdentifier: 
  preventCollision: 1
--- !u!114 &3728739364332872010
MonoBehaviour:
  m_ObjectHideFlags: 0
  m_CorrespondingSourceObject: {fileID: 0}
  m_PrefabInstance: {fileID: 0}
  m_PrefabAsset: {fileID: 0}
  m_GameObject: {fileID: 1636336655521197463}
  m_Enabled: 1
  m_EditorHideFlags: 0
  m_Script: {fileID: 11500000, guid: 8093b0706b2f12e438b3a35b4f39fcdd, type: 3}
  m_Name: 
  m_EditorClassIdentifier: 
  obj:
  - {fileID: 6351999846962143859, guid: 3fb4174293f7f034881821d955b87151, type: 3}
  - {fileID: 7648858408552482472, guid: 4fe359bdb59c8184b87e501e10709b0f, type: 3}
  - {fileID: 5545297518328148581, guid: 19c22dc669e8bc94d89dc85225aed1aa, type: 3}
  - {fileID: 3346491672977837125, guid: 6fda3b021eaf08149ac33898810a5b50, type: 3}
  - {fileID: 3889163905444460431, guid: 9e63f400559efd644b11460298a455fa, type: 3}
  spawnQuantity: 30
  SpawnDelay: 0
  localLoader: {fileID: 7432276643439910427, guid: 48b6f39d9186fc24a9037d00e857bb7b, type: 3}
