%YAML 1.1
%TAG !u! tag:unity3d.com,2011:
--- !u!1001 &1786743059911415747
PrefabInstance:
  m_ObjectHideFlags: 0
  serializedVersion: 2
  m_Modification:
    serializedVersion: 3
    m_TransformParent: {fileID: 0}
    m_Modifications:
    - target: {fileID: 2876734560754849509, guid: b627f2872c2127f44a385fb5260dfff1, type: 3}
      propertyPath: m_Materials.Array.data[0]
      value: 
      objectReference: {fileID: 2100000, guid: 763983ce10a37d8498056714c5a5850b, type: 2}
    - target: {fileID: 3544772135227506787, guid: b627f2872c2127f44a385fb5260dfff1, type: 3}
      propertyPath: m_Mesh
      value: 
      objectReference: {fileID: -5072389515903370216, guid: 6b91d8ef45459e948aac73a56830a8a5, type: 3}
    - target: {fileID: 5585604374966391866, guid: b627f2872c2127f44a385fb5260dfff1, type: 3}
      propertyPath: m_Mesh
      value: 
      objectReference: {fileID: -6042109862790127839, guid: 6b91d8ef45459e948aac73a56830a8a5, type: 3}
    - target: {fileID: 5771843301164980422, guid: b627f2872c2127f44a385fb5260dfff1, type: 3}
      propertyPath: m_Name
      value: Window 5 Variant
      objectReference: {fileID: 0}
    - target: {fileID: 8063812468655886022, guid: b627f2872c2127f44a385fb5260dfff1, type: 3}
      propertyPath: m_RootOrder
      value: 0
      objectReference: {fileID: 0}
    - target: {fileID: 8063812468655886022, guid: b627f2872c2127f44a385fb5260dfff1, type: 3}
      propertyPath: m_LocalPosition.x
      value: 0
      objectReference: {fileID: 0}
    - target: {fileID: 8063812468655886022, guid: b627f2872c2127f44a385fb5260dfff1, type: 3}
      propertyPath: m_LocalPosition.y
      value: 0
      objectReference: {fileID: 0}
    - target: {fileID: 8063812468655886022, guid: b627f2872c2127f44a385fb5260dfff1, type: 3}
      propertyPath: m_LocalPosition.z
      value: 0
      objectReference: {fileID: 0}
    - target: {fileID: 8063812468655886022, guid: b627f2872c2127f44a385fb5260dfff1, type: 3}
      propertyPath: m_LocalRotation.w
      value: 1
      objectReference: {fileID: 0}
    - target: {fileID: 8063812468655886022, guid: b627f2872c2127f44a385fb5260dfff1, type: 3}
      propertyPath: m_LocalRotation.x
      value: 0
      objectReference: {fileID: 0}
    - target: {fileID: 8063812468655886022, guid: b627f2872c2127f44a385fb5260dfff1, type: 3}
      propertyPath: m_LocalRotation.y
      value: -0
      objectReference: {fileID: 0}
    - target: {fileID: 8063812468655886022, guid: b627f2872c2127f44a385fb5260dfff1, type: 3}
      propertyPath: m_LocalRotation.z
      value: -0
      objectReference: {fileID: 0}
    - target: {fileID: 8063812468655886022, guid: b627f2872c2127f44a385fb5260dfff1, type: 3}
      propertyPath: m_LocalEulerAnglesHint.x
      value: 0
      objectReference: {fileID: 0}
    - target: {fileID: 8063812468655886022, guid: b627f2872c2127f44a385fb5260dfff1, type: 3}
      propertyPath: m_LocalEulerAnglesHint.y
      value: 0
      objectReference: {fileID: 0}
    - target: {fileID: 8063812468655886022, guid: b627f2872c2127f44a385fb5260dfff1, type: 3}
      propertyPath: m_LocalEulerAnglesHint.z
      value: 0
      objectReference: {fileID: 0}
    - target: {fileID: 8178085237285721885, guid: b627f2872c2127f44a385fb5260dfff1, type: 3}
      propertyPath: m_Materials.Array.data[0]
      value: 
      objectReference: {fileID: 2100000, guid: ba28e773960ccb14492271d624c69bf3, type: 2}
    m_RemovedComponents: []
    m_RemovedGameObjects: []
    m_AddedGameObjects: []
    m_AddedComponents: []
  m_SourcePrefab: {fileID: 100100000, guid: b627f2872c2127f44a385fb5260dfff1, type: 3}
