%YAML 1.1
%TAG !u! tag:unity3d.com,2011:
--- !u!1 &7460987207088184061
GameObject:
  m_ObjectHideFlags: 0
  m_CorrespondingSourceObject: {fileID: 0}
  m_PrefabInstance: {fileID: 0}
  m_PrefabAsset: {fileID: 0}
  serializedVersion: 6
  m_Component:
  - component: {fileID: 5743595841709887345}
  - component: {fileID: 8231712971561134342}
  - component: {fileID: 377105703981431866}
  - component: {fileID: 1285551413298836839}
  m_Layer: 0
  m_Name: Rock_Mixed_Bundle
  m_TagString: Untagged
  m_Icon: {fileID: 0}
  m_NavMeshLayer: 0
  m_StaticEditorFlags: 0
  m_IsActive: 1
--- !u!4 &5743595841709887345
Transform:
  m_ObjectHideFlags: 0
  m_CorrespondingSourceObject: {fileID: 0}
  m_PrefabInstance: {fileID: 0}
  m_PrefabAsset: {fileID: 0}
  m_GameObject: {fileID: 7460987207088184061}
  m_LocalRotation: {x: -0, y: -0, z: -0, w: 1}
  m_LocalPosition: {x: 0, y: 0, z: 350}
  m_LocalScale: {x: 50, y: 0.2, z: 50}
  m_ConstrainProportionsScale: 0
  m_Children: []
  m_Father: {fileID: 0}
  m_RootOrder: -1
  m_LocalEulerAnglesHint: {x: 0, y: 0, z: 0}
--- !u!114 &8231712971561134342
MonoBehaviour:
  m_ObjectHideFlags: 0
  m_CorrespondingSourceObject: {fileID: 0}
  m_PrefabInstance: {fileID: 0}
  m_PrefabAsset: {fileID: 0}
  m_GameObject: {fileID: 7460987207088184061}
  m_Enabled: 1
  m_EditorHideFlags: 0
  m_Script: {fileID: 11500000, guid: 96074e0cf1195764f888dc54eb3a4e51, type: 3}
  m_Name: 
  m_EditorClassIdentifier: 
  color: {r: 0, g: 1, b: 0.4869604, a: 1}
  hideOnPlay: 0
--- !u!114 &377105703981431866
MonoBehaviour:
  m_ObjectHideFlags: 0
  m_CorrespondingSourceObject: {fileID: 0}
  m_PrefabInstance: {fileID: 0}
  m_PrefabAsset: {fileID: 0}
  m_GameObject: {fileID: 7460987207088184061}
  m_Enabled: 0
  m_EditorHideFlags: 0
  m_Script: {fileID: 11500000, guid: b01f76f577320124d98d0586ba69b51b, type: 3}
  m_Name: 
  m_EditorClassIdentifier: 
  preventCollision: 1
--- !u!114 &1285551413298836839
MonoBehaviour:
  m_ObjectHideFlags: 0
  m_CorrespondingSourceObject: {fileID: 0}
  m_PrefabInstance: {fileID: 0}
  m_PrefabAsset: {fileID: 0}
  m_GameObject: {fileID: 7460987207088184061}
  m_Enabled: 1
  m_EditorHideFlags: 0
  m_Script: {fileID: 11500000, guid: 8093b0706b2f12e438b3a35b4f39fcdd, type: 3}
  m_Name: 
  m_EditorClassIdentifier: 
  obj:
  - {fileID: 9193549483030867027, guid: 97c07ee3ad8b30641b37e639166bb6e8, type: 3}
  - {fileID: 517307184140894979, guid: 06a64a9e79fd0f04590f6a248a79c4ae, type: 3}
  - {fileID: 3435812107780518154, guid: 9e768191ff9dd934685231742a591e8c, type: 3}
  - {fileID: 3368133481970217368, guid: b4c9ce81359b20f42b76372a8a30ff6f, type: 3}
  - {fileID: 6417007061007573905, guid: 5d125f2dae52a7f4b99c0d67b193114f, type: 3}
  - {fileID: 9085148008058874758, guid: ca36ab997d36d0b4ba83fe2b979802dd, type: 3}
  - {fileID: 8652479427923415515, guid: 0b098485fd578bf489afb90dbad1892d, type: 3}
  - {fileID: 2625292399800779649, guid: 72b2eaba90e6ad442b899d5abe77a0c3, type: 3}
  - {fileID: 7736925627913510181, guid: 663db62ecc1f7414189ef6361a9e15fc, type: 3}
  - {fileID: 8204847083545289603, guid: 4b2905378ef57c84986761571ca4bc7a, type: 3}
  - {fileID: 6340618207825044845, guid: 8384b5967240fef4d8c6c72a516933ca, type: 3}
  - {fileID: 3685456670776473216, guid: bbf742929178dc54bb85e36add2e22c6, type: 3}
  - {fileID: 8148732582115495541, guid: e3f16610a6c22af4eafdecd8374780c3, type: 3}
  - {fileID: 7334726265798749337, guid: 3418c5d47f1244047acf6e51198e3652, type: 3}
  - {fileID: 3170962885144324446, guid: 0c5d6bf7ac914fa4198d062592e8a098, type: 3}
  - {fileID: 3873718586394675119, guid: 712653b11c8cd304cb1210eecb1e8389, type: 3}
  - {fileID: 4604953444307843113, guid: ca9275295bcac7241b71451c878714e7, type: 3}
  - {fileID: 2006598069579182957, guid: a134b1e63f01b464baf7c82c92fa3c6d, type: 3}
  - {fileID: 2380218006685440604, guid: 7571751c1149c5543a7d990098b86fe9, type: 3}
  - {fileID: 9138431328993393549, guid: c86868403c01feb47a007f62d7f1ae84, type: 3}
  spawnQuantity: 15
  SpawnDelay: 0
  localLoader: {fileID: 7432276643439910427, guid: 48b6f39d9186fc24a9037d00e857bb7b, type: 3}
