%YAML 1.1
%TAG !u! tag:unity3d.com,2011:
--- !u!1001 &343491931797330661
PrefabInstance:
  m_ObjectHideFlags: 0
  serializedVersion: 2
  m_Modification:
    serializedVersion: 3
    m_TransformParent: {fileID: 0}
    m_Modifications:
    - target: {fileID: 6867888445284286958, guid: 4b88d3017dea81d419560d5e5b3234f0, type: 3}
      propertyPath: m_Name
      value: 1P Bed Variant
      objectReference: {fileID: 0}
    - target: {fileID: 6867888445284286959, guid: 4b88d3017dea81d419560d5e5b3234f0, type: 3}
      propertyPath: m_RootOrder
      value: 0
      objectReference: {fileID: 0}
    - target: {fileID: 6867888445284286959, guid: 4b88d3017dea81d419560d5e5b3234f0, type: 3}
      propertyPath: m_LocalPosition.x
      value: 24.336332
      objectReference: {fileID: 0}
    - target: {fileID: 6867888445284286959, guid: 4b88d3017dea81d419560d5e5b3234f0, type: 3}
      propertyPath: m_LocalPosition.y
      value: 48.143265
      objectReference: {fileID: 0}
    - target: {fileID: 6867888445284286959, guid: 4b88d3017dea81d419560d5e5b3234f0, type: 3}
      propertyPath: m_LocalPosition.z
      value: -26.505829
      objectReference: {fileID: 0}
    - target: {fileID: 6867888445284286959, guid: 4b88d3017dea81d419560d5e5b3234f0, type: 3}
      propertyPath: m_LocalRotation.w
      value: 1
      objectReference: {fileID: 0}
    - target: {fileID: 6867888445284286959, guid: 4b88d3017dea81d419560d5e5b3234f0, type: 3}
      propertyPath: m_LocalRotation.x
      value: 0
      objectReference: {fileID: 0}
    - target: {fileID: 6867888445284286959, guid: 4b88d3017dea81d419560d5e5b3234f0, type: 3}
      propertyPath: m_LocalRotation.y
      value: -0
      objectReference: {fileID: 0}
    - target: {fileID: 6867888445284286959, guid: 4b88d3017dea81d419560d5e5b3234f0, type: 3}
      propertyPath: m_LocalRotation.z
      value: -0
      objectReference: {fileID: 0}
    - target: {fileID: 6867888445284286959, guid: 4b88d3017dea81d419560d5e5b3234f0, type: 3}
      propertyPath: m_LocalEulerAnglesHint.x
      value: 0
      objectReference: {fileID: 0}
    - target: {fileID: 6867888445284286959, guid: 4b88d3017dea81d419560d5e5b3234f0, type: 3}
      propertyPath: m_LocalEulerAnglesHint.y
      value: 0
      objectReference: {fileID: 0}
    - target: {fileID: 6867888445284286959, guid: 4b88d3017dea81d419560d5e5b3234f0, type: 3}
      propertyPath: m_LocalEulerAnglesHint.z
      value: 0
      objectReference: {fileID: 0}
    m_RemovedComponents: []
    m_RemovedGameObjects: []
    m_AddedGameObjects:
    - targetCorrespondingSourceObject: {fileID: 6867888445284286959, guid: 4b88d3017dea81d419560d5e5b3234f0, type: 3}
      insertIndex: -1
      addedObject: {fileID: 3325502993270960634}
    m_AddedComponents: []
  m_SourcePrefab: {fileID: 100100000, guid: 4b88d3017dea81d419560d5e5b3234f0, type: 3}
--- !u!4 &6596630171716950794 stripped
Transform:
  m_CorrespondingSourceObject: {fileID: 6867888445284286959, guid: 4b88d3017dea81d419560d5e5b3234f0, type: 3}
  m_PrefabInstance: {fileID: 343491931797330661}
  m_PrefabAsset: {fileID: 0}
--- !u!1001 &6118696300773814382
PrefabInstance:
  m_ObjectHideFlags: 0
  serializedVersion: 2
  m_Modification:
    serializedVersion: 3
    m_TransformParent: {fileID: 6596630171716950794}
    m_Modifications:
    - target: {fileID: 635582852940655423, guid: 3f6446c449ff4764cb20c385557dfc56, type: 3}
      propertyPath: m_Name
      value: DestroyAfterLifetime
      objectReference: {fileID: 0}
    - target: {fileID: 2049337815694189832, guid: 3f6446c449ff4764cb20c385557dfc56, type: 3}
      propertyPath: lifeDuration
      value: 10
      objectReference: {fileID: 0}
    - target: {fileID: 8849422103950606740, guid: 3f6446c449ff4764cb20c385557dfc56, type: 3}
      propertyPath: m_RootOrder
      value: 2
      objectReference: {fileID: 0}
    - target: {fileID: 8849422103950606740, guid: 3f6446c449ff4764cb20c385557dfc56, type: 3}
      propertyPath: m_LocalPosition.x
      value: 0
      objectReference: {fileID: 0}
    - target: {fileID: 8849422103950606740, guid: 3f6446c449ff4764cb20c385557dfc56, type: 3}
      propertyPath: m_LocalPosition.y
      value: 0
      objectReference: {fileID: 0}
    - target: {fileID: 8849422103950606740, guid: 3f6446c449ff4764cb20c385557dfc56, type: 3}
      propertyPath: m_LocalPosition.z
      value: 0
      objectReference: {fileID: 0}
    - target: {fileID: 8849422103950606740, guid: 3f6446c449ff4764cb20c385557dfc56, type: 3}
      propertyPath: m_LocalRotation.w
      value: 1
      objectReference: {fileID: 0}
    - target: {fileID: 8849422103950606740, guid: 3f6446c449ff4764cb20c385557dfc56, type: 3}
      propertyPath: m_LocalRotation.x
      value: 0
      objectReference: {fileID: 0}
    - target: {fileID: 8849422103950606740, guid: 3f6446c449ff4764cb20c385557dfc56, type: 3}
      propertyPath: m_LocalRotation.y
      value: 0
      objectReference: {fileID: 0}
    - target: {fileID: 8849422103950606740, guid: 3f6446c449ff4764cb20c385557dfc56, type: 3}
      propertyPath: m_LocalRotation.z
      value: 0
      objectReference: {fileID: 0}
    - target: {fileID: 8849422103950606740, guid: 3f6446c449ff4764cb20c385557dfc56, type: 3}
      propertyPath: m_LocalEulerAnglesHint.x
      value: 0
      objectReference: {fileID: 0}
    - target: {fileID: 8849422103950606740, guid: 3f6446c449ff4764cb20c385557dfc56, type: 3}
      propertyPath: m_LocalEulerAnglesHint.y
      value: 0
      objectReference: {fileID: 0}
    - target: {fileID: 8849422103950606740, guid: 3f6446c449ff4764cb20c385557dfc56, type: 3}
      propertyPath: m_LocalEulerAnglesHint.z
      value: 0
      objectReference: {fileID: 0}
    m_RemovedComponents: []
    m_RemovedGameObjects: []
    m_AddedGameObjects: []
    m_AddedComponents: []
  m_SourcePrefab: {fileID: 100100000, guid: 3f6446c449ff4764cb20c385557dfc56, type: 3}
--- !u!4 &3325502993270960634 stripped
Transform:
  m_CorrespondingSourceObject: {fileID: 8849422103950606740, guid: 3f6446c449ff4764cb20c385557dfc56, type: 3}
  m_PrefabInstance: {fileID: 6118696300773814382}
  m_PrefabAsset: {fileID: 0}
