%YAML 1.1
%TAG !u! tag:unity3d.com,2011:
--- !u!1001 &2022655905586090577
PrefabInstance:
  m_ObjectHideFlags: 0
  serializedVersion: 2
  m_Modification:
    serializedVersion: 3
    m_TransformParent: {fileID: 0}
    m_Modifications:
    - target: {fileID: 115020, guid: a0c53a09e4a37b5409b1248ebce2c376, type: 3}
      propertyPath: m_Name
      value: Tree_Spruce_2
      objectReference: {fileID: 0}
    - target: {fileID: 115020, guid: a0c53a09e4a37b5409b1248ebce2c376, type: 3}
      propertyPath: m_Layer
      value: 0
      objectReference: {fileID: 0}
    - target: {fileID: 445370, guid: a0c53a09e4a37b5409b1248ebce2c376, type: 3}
      propertyPath: m_RootOrder
      value: 8
      objectReference: {fileID: 0}
    - target: {fileID: 445370, guid: a0c53a09e4a37b5409b1248ebce2c376, type: 3}
      propertyPath: m_LocalScale.x
      value: 3
      objectReference: {fileID: 0}
    - target: {fileID: 445370, guid: a0c53a09e4a37b5409b1248ebce2c376, type: 3}
      propertyPath: m_LocalScale.y
      value: 3
      objectReference: {fileID: 0}
    - target: {fileID: 445370, guid: a0c53a09e4a37b5409b1248ebce2c376, type: 3}
      propertyPath: m_LocalScale.z
      value: 3
      objectReference: {fileID: 0}
    - target: {fileID: 445370, guid: a0c53a09e4a37b5409b1248ebce2c376, type: 3}
      propertyPath: m_LocalPosition.x
      value: 1780.8596
      objectReference: {fileID: 0}
    - target: {fileID: 445370, guid: a0c53a09e4a37b5409b1248ebce2c376, type: 3}
      propertyPath: m_LocalPosition.y
      value: 249.50409
      objectReference: {fileID: 0}
    - target: {fileID: 445370, guid: a0c53a09e4a37b5409b1248ebce2c376, type: 3}
      propertyPath: m_LocalPosition.z
      value: -651.448
      objectReference: {fileID: 0}
    - target: {fileID: 445370, guid: a0c53a09e4a37b5409b1248ebce2c376, type: 3}
      propertyPath: m_LocalRotation.w
      value: 1
      objectReference: {fileID: 0}
    - target: {fileID: 445370, guid: a0c53a09e4a37b5409b1248ebce2c376, type: 3}
      propertyPath: m_LocalRotation.x
      value: 0.0000000218557
      objectReference: {fileID: 0}
    - target: {fileID: 445370, guid: a0c53a09e4a37b5409b1248ebce2c376, type: 3}
      propertyPath: m_LocalRotation.y
      value: -0
      objectReference: {fileID: 0}
    - target: {fileID: 445370, guid: a0c53a09e4a37b5409b1248ebce2c376, type: 3}
      propertyPath: m_LocalRotation.z
      value: -0
      objectReference: {fileID: 0}
    - target: {fileID: 445370, guid: a0c53a09e4a37b5409b1248ebce2c376, type: 3}
      propertyPath: m_LocalEulerAnglesHint.x
      value: 0
      objectReference: {fileID: 0}
    - target: {fileID: 445370, guid: a0c53a09e4a37b5409b1248ebce2c376, type: 3}
      propertyPath: m_LocalEulerAnglesHint.y
      value: 0
      objectReference: {fileID: 0}
    - target: {fileID: 445370, guid: a0c53a09e4a37b5409b1248ebce2c376, type: 3}
      propertyPath: m_LocalEulerAnglesHint.z
      value: 0
      objectReference: {fileID: 0}
    - target: {fileID: 445370, guid: a0c53a09e4a37b5409b1248ebce2c376, type: 3}
      propertyPath: m_ConstrainProportionsScale
      value: 1
      objectReference: {fileID: 0}
    m_RemovedComponents: []
    m_RemovedGameObjects: []
    m_AddedGameObjects: []
    m_AddedComponents:
    - targetCorrespondingSourceObject: {fileID: 115020, guid: a0c53a09e4a37b5409b1248ebce2c376, type: 3}
      insertIndex: -1
      addedObject: {fileID: 3120400209024761344}
    - targetCorrespondingSourceObject: {fileID: 115020, guid: a0c53a09e4a37b5409b1248ebce2c376, type: 3}
      insertIndex: -1
      addedObject: {fileID: -4108508288288315317}
    - targetCorrespondingSourceObject: {fileID: 115020, guid: a0c53a09e4a37b5409b1248ebce2c376, type: 3}
      insertIndex: -1
      addedObject: {fileID: 1599702935450205688}
  m_SourcePrefab: {fileID: 100100000, guid: a0c53a09e4a37b5409b1248ebce2c376, type: 3}
--- !u!1 &2022655905586205469 stripped
GameObject:
  m_CorrespondingSourceObject: {fileID: 115020, guid: a0c53a09e4a37b5409b1248ebce2c376, type: 3}
  m_PrefabInstance: {fileID: 2022655905586090577}
  m_PrefabAsset: {fileID: 0}
--- !u!64 &3120400209024761344
MeshCollider:
  m_ObjectHideFlags: 0
  m_CorrespondingSourceObject: {fileID: 0}
  m_PrefabInstance: {fileID: 0}
  m_PrefabAsset: {fileID: 0}
  m_GameObject: {fileID: 2022655905586205469}
  m_Material: {fileID: 0}
  m_IncludeLayers:
    serializedVersion: 2
    m_Bits: 0
  m_ExcludeLayers:
    serializedVersion: 2
    m_Bits: 0
  m_LayerOverridePriority: 0
  m_IsTrigger: 0
  m_ProvidesContacts: 0
  m_Enabled: 1
  serializedVersion: 5
  m_Convex: 0
  m_CookingOptions: 30
  m_Mesh: {fileID: 4300000, guid: 770b1e3321cb97344b7b5f9ccc2bfe56, type: 3}
--- !u!114 &-4108508288288315317
MonoBehaviour:
  m_ObjectHideFlags: 0
  m_CorrespondingSourceObject: {fileID: 0}
  m_PrefabInstance: {fileID: 0}
  m_PrefabAsset: {fileID: 0}
  m_GameObject: {fileID: 2022655905586205469}
  m_Enabled: 1
  m_EditorHideFlags: 0
  m_Script: {fileID: 11500000, guid: b01f76f577320124d98d0586ba69b51b, type: 3}
  m_Name: 
  m_EditorClassIdentifier: 
  preventCollision: 1
--- !u!208 &1599702935450205688
NavMeshObstacle:
  m_ObjectHideFlags: 0
  m_CorrespondingSourceObject: {fileID: 0}
  m_PrefabInstance: {fileID: 0}
  m_PrefabAsset: {fileID: 0}
  m_GameObject: {fileID: 2022655905586205469}
  m_Enabled: 1
  serializedVersion: 3
  m_Shape: 0
  m_Extents: {x: 0.21, y: 3.1150002, z: 0.21}
  m_MoveThreshold: 0.1
  m_Carve: 1
  m_CarveOnlyStationary: 1
  m_Center: {x: 0, y: 3.107, z: 0}
  m_TimeToStationary: 0.5
