%YAML 1.1
%TAG !u! tag:unity3d.com,2011:
--- !u!1001 &9143938861235273111
PrefabInstance:
  m_ObjectHideFlags: 0
  serializedVersion: 2
  m_Modification:
    serializedVersion: 3
    m_TransformParent: {fileID: 0}
    m_Modifications:
    - target: {fileID: 166856, guid: 99a48108c5a1932488c06e519f6097f4, type: 3}
      propertyPath: m_Name
      value: Tree_Spruce_3
      objectReference: {fileID: 0}
    - target: {fileID: 166856, guid: 99a48108c5a1932488c06e519f6097f4, type: 3}
      propertyPath: m_Layer
      value: 0
      objectReference: {fileID: 0}
    - target: {fileID: 497570, guid: 99a48108c5a1932488c06e519f6097f4, type: 3}
      propertyPath: m_RootOrder
      value: 7
      objectReference: {fileID: 0}
    - target: {fileID: 497570, guid: 99a48108c5a1932488c06e519f6097f4, type: 3}
      propertyPath: m_LocalScale.x
      value: 3
      objectReference: {fileID: 0}
    - target: {fileID: 497570, guid: 99a48108c5a1932488c06e519f6097f4, type: 3}
      propertyPath: m_LocalScale.y
      value: 3
      objectReference: {fileID: 0}
    - target: {fileID: 497570, guid: 99a48108c5a1932488c06e519f6097f4, type: 3}
      propertyPath: m_LocalScale.z
      value: 3
      objectReference: {fileID: 0}
    - target: {fileID: 497570, guid: 99a48108c5a1932488c06e519f6097f4, type: 3}
      propertyPath: m_LocalPosition.x
      value: 1781.0411
      objectReference: {fileID: 0}
    - target: {fileID: 497570, guid: 99a48108c5a1932488c06e519f6097f4, type: 3}
      propertyPath: m_LocalPosition.y
      value: 249.53209
      objectReference: {fileID: 0}
    - target: {fileID: 497570, guid: 99a48108c5a1932488c06e519f6097f4, type: 3}
      propertyPath: m_LocalPosition.z
      value: -663.0268
      objectReference: {fileID: 0}
    - target: {fileID: 497570, guid: 99a48108c5a1932488c06e519f6097f4, type: 3}
      propertyPath: m_LocalRotation.w
      value: 1
      objectReference: {fileID: 0}
    - target: {fileID: 497570, guid: 99a48108c5a1932488c06e519f6097f4, type: 3}
      propertyPath: m_LocalRotation.x
      value: 0.0000000218557
      objectReference: {fileID: 0}
    - target: {fileID: 497570, guid: 99a48108c5a1932488c06e519f6097f4, type: 3}
      propertyPath: m_LocalRotation.y
      value: -0
      objectReference: {fileID: 0}
    - target: {fileID: 497570, guid: 99a48108c5a1932488c06e519f6097f4, type: 3}
      propertyPath: m_LocalRotation.z
      value: -0
      objectReference: {fileID: 0}
    - target: {fileID: 497570, guid: 99a48108c5a1932488c06e519f6097f4, type: 3}
      propertyPath: m_LocalEulerAnglesHint.x
      value: 0
      objectReference: {fileID: 0}
    - target: {fileID: 497570, guid: 99a48108c5a1932488c06e519f6097f4, type: 3}
      propertyPath: m_LocalEulerAnglesHint.y
      value: 0
      objectReference: {fileID: 0}
    - target: {fileID: 497570, guid: 99a48108c5a1932488c06e519f6097f4, type: 3}
      propertyPath: m_LocalEulerAnglesHint.z
      value: 0
      objectReference: {fileID: 0}
    - target: {fileID: 497570, guid: 99a48108c5a1932488c06e519f6097f4, type: 3}
      propertyPath: m_ConstrainProportionsScale
      value: 1
      objectReference: {fileID: 0}
    m_RemovedComponents: []
    m_RemovedGameObjects: []
    m_AddedGameObjects: []
    m_AddedComponents:
    - targetCorrespondingSourceObject: {fileID: 166856, guid: 99a48108c5a1932488c06e519f6097f4, type: 3}
      insertIndex: -1
      addedObject: {fileID: 7461190378982285844}
    - targetCorrespondingSourceObject: {fileID: 166856, guid: 99a48108c5a1932488c06e519f6097f4, type: 3}
      insertIndex: -1
      addedObject: {fileID: -6308908176453920812}
    - targetCorrespondingSourceObject: {fileID: 166856, guid: 99a48108c5a1932488c06e519f6097f4, type: 3}
      insertIndex: -1
      addedObject: {fileID: 793279891903006270}
  m_SourcePrefab: {fileID: 100100000, guid: 99a48108c5a1932488c06e519f6097f4, type: 3}
--- !u!1 &9143938861235435103 stripped
GameObject:
  m_CorrespondingSourceObject: {fileID: 166856, guid: 99a48108c5a1932488c06e519f6097f4, type: 3}
  m_PrefabInstance: {fileID: 9143938861235273111}
  m_PrefabAsset: {fileID: 0}
--- !u!64 &7461190378982285844
MeshCollider:
  m_ObjectHideFlags: 0
  m_CorrespondingSourceObject: {fileID: 0}
  m_PrefabInstance: {fileID: 0}
  m_PrefabAsset: {fileID: 0}
  m_GameObject: {fileID: 9143938861235435103}
  m_Material: {fileID: 0}
  m_IncludeLayers:
    serializedVersion: 2
    m_Bits: 0
  m_ExcludeLayers:
    serializedVersion: 2
    m_Bits: 0
  m_LayerOverridePriority: 0
  m_IsTrigger: 0
  m_ProvidesContacts: 0
  m_Enabled: 1
  serializedVersion: 5
  m_Convex: 0
  m_CookingOptions: 30
  m_Mesh: {fileID: 4300000, guid: 49a13064a6f46f1438de87926fc5fc42, type: 3}
--- !u!114 &-6308908176453920812
MonoBehaviour:
  m_ObjectHideFlags: 0
  m_CorrespondingSourceObject: {fileID: 0}
  m_PrefabInstance: {fileID: 0}
  m_PrefabAsset: {fileID: 0}
  m_GameObject: {fileID: 9143938861235435103}
  m_Enabled: 1
  m_EditorHideFlags: 0
  m_Script: {fileID: 11500000, guid: b01f76f577320124d98d0586ba69b51b, type: 3}
  m_Name: 
  m_EditorClassIdentifier: 
  preventCollision: 1
--- !u!208 &793279891903006270
NavMeshObstacle:
  m_ObjectHideFlags: 0
  m_CorrespondingSourceObject: {fileID: 0}
  m_PrefabInstance: {fileID: 0}
  m_PrefabAsset: {fileID: 0}
  m_GameObject: {fileID: 9143938861235435103}
  m_Enabled: 1
  serializedVersion: 3
  m_Shape: 0
  m_Extents: {x: 0.24, y: 3.9060001, z: 0.24}
  m_MoveThreshold: 0.1
  m_Carve: 1
  m_CarveOnlyStationary: 1
  m_Center: {x: 0, y: 3.897, z: 0}
  m_TimeToStationary: 0.5
