%YAML 1.1
%TAG !u! tag:unity3d.com,2011:
--- !u!1001 &2029807243566762120
PrefabInstance:
  m_ObjectHideFlags: 0
  serializedVersion: 2
  m_Modification:
    serializedVersion: 3
    m_TransformParent: {fileID: 0}
    m_Modifications:
    - target: {fileID: 182406, guid: a1d34f7914a1d8148a0ce7262f7ba394, type: 3}
      propertyPath: m_Name
      value: Tree_Acacia_2
      objectReference: {fileID: 0}
    - target: {fileID: 182406, guid: a1d34f7914a1d8148a0ce7262f7ba394, type: 3}
      propertyPath: m_Layer
      value: 0
      objectReference: {fileID: 0}
    - target: {fileID: 421498, guid: a1d34f7914a1d8148a0ce7262f7ba394, type: 3}
      propertyPath: m_RootOrder
      value: 39
      objectReference: {fileID: 0}
    - target: {fileID: 421498, guid: a1d34f7914a1d8148a0ce7262f7ba394, type: 3}
      propertyPath: m_LocalScale.x
      value: 3
      objectReference: {fileID: 0}
    - target: {fileID: 421498, guid: a1d34f7914a1d8148a0ce7262f7ba394, type: 3}
      propertyPath: m_LocalScale.y
      value: 3
      objectReference: {fileID: 0}
    - target: {fileID: 421498, guid: a1d34f7914a1d8148a0ce7262f7ba394, type: 3}
      propertyPath: m_LocalScale.z
      value: 3
      objectReference: {fileID: 0}
    - target: {fileID: 421498, guid: a1d34f7914a1d8148a0ce7262f7ba394, type: 3}
      propertyPath: m_LocalPosition.x
      value: 1824.5033
      objectReference: {fileID: 0}
    - target: {fileID: 421498, guid: a1d34f7914a1d8148a0ce7262f7ba394, type: 3}
      propertyPath: m_LocalPosition.y
      value: 249.33698
      objectReference: {fileID: 0}
    - target: {fileID: 421498, guid: a1d34f7914a1d8148a0ce7262f7ba394, type: 3}
      propertyPath: m_LocalPosition.z
      value: -692.8847
      objectReference: {fileID: 0}
    - target: {fileID: 421498, guid: a1d34f7914a1d8148a0ce7262f7ba394, type: 3}
      propertyPath: m_LocalRotation.w
      value: 1
      objectReference: {fileID: 0}
    - target: {fileID: 421498, guid: a1d34f7914a1d8148a0ce7262f7ba394, type: 3}
      propertyPath: m_LocalRotation.x
      value: 0.0000000218557
      objectReference: {fileID: 0}
    - target: {fileID: 421498, guid: a1d34f7914a1d8148a0ce7262f7ba394, type: 3}
      propertyPath: m_LocalRotation.y
      value: -0
      objectReference: {fileID: 0}
    - target: {fileID: 421498, guid: a1d34f7914a1d8148a0ce7262f7ba394, type: 3}
      propertyPath: m_LocalRotation.z
      value: -0
      objectReference: {fileID: 0}
    - target: {fileID: 421498, guid: a1d34f7914a1d8148a0ce7262f7ba394, type: 3}
      propertyPath: m_LocalEulerAnglesHint.x
      value: 0
      objectReference: {fileID: 0}
    - target: {fileID: 421498, guid: a1d34f7914a1d8148a0ce7262f7ba394, type: 3}
      propertyPath: m_LocalEulerAnglesHint.y
      value: 0
      objectReference: {fileID: 0}
    - target: {fileID: 421498, guid: a1d34f7914a1d8148a0ce7262f7ba394, type: 3}
      propertyPath: m_LocalEulerAnglesHint.z
      value: 0
      objectReference: {fileID: 0}
    - target: {fileID: 421498, guid: a1d34f7914a1d8148a0ce7262f7ba394, type: 3}
      propertyPath: m_ConstrainProportionsScale
      value: 1
      objectReference: {fileID: 0}
    m_RemovedComponents: []
    m_RemovedGameObjects: []
    m_AddedGameObjects: []
    m_AddedComponents:
    - targetCorrespondingSourceObject: {fileID: 182406, guid: a1d34f7914a1d8148a0ce7262f7ba394, type: 3}
      insertIndex: -1
      addedObject: {fileID: -6644067747250890776}
    - targetCorrespondingSourceObject: {fileID: 182406, guid: a1d34f7914a1d8148a0ce7262f7ba394, type: 3}
      insertIndex: -1
      addedObject: {fileID: 4284361120640689343}
    - targetCorrespondingSourceObject: {fileID: 182406, guid: a1d34f7914a1d8148a0ce7262f7ba394, type: 3}
      insertIndex: -1
      addedObject: {fileID: 982933562240232800}
  m_SourcePrefab: {fileID: 100100000, guid: a1d34f7914a1d8148a0ce7262f7ba394, type: 3}
--- !u!1 &2029807243566579726 stripped
GameObject:
  m_CorrespondingSourceObject: {fileID: 182406, guid: a1d34f7914a1d8148a0ce7262f7ba394, type: 3}
  m_PrefabInstance: {fileID: 2029807243566762120}
  m_PrefabAsset: {fileID: 0}
--- !u!64 &-6644067747250890776
MeshCollider:
  m_ObjectHideFlags: 0
  m_CorrespondingSourceObject: {fileID: 0}
  m_PrefabInstance: {fileID: 0}
  m_PrefabAsset: {fileID: 0}
  m_GameObject: {fileID: 2029807243566579726}
  m_Material: {fileID: 0}
  m_IncludeLayers:
    serializedVersion: 2
    m_Bits: 0
  m_ExcludeLayers:
    serializedVersion: 2
    m_Bits: 0
  m_LayerOverridePriority: 0
  m_IsTrigger: 0
  m_ProvidesContacts: 0
  m_Enabled: 1
  serializedVersion: 5
  m_Convex: 0
  m_CookingOptions: 30
  m_Mesh: {fileID: 4300000, guid: 35c5b6683953dc54f99f68b4a16819f7, type: 3}
--- !u!114 &4284361120640689343
MonoBehaviour:
  m_ObjectHideFlags: 0
  m_CorrespondingSourceObject: {fileID: 0}
  m_PrefabInstance: {fileID: 0}
  m_PrefabAsset: {fileID: 0}
  m_GameObject: {fileID: 2029807243566579726}
  m_Enabled: 1
  m_EditorHideFlags: 0
  m_Script: {fileID: 11500000, guid: b01f76f577320124d98d0586ba69b51b, type: 3}
  m_Name: 
  m_EditorClassIdentifier: 
  preventCollision: 1
--- !u!208 &982933562240232800
NavMeshObstacle:
  m_ObjectHideFlags: 0
  m_CorrespondingSourceObject: {fileID: 0}
  m_PrefabInstance: {fileID: 0}
  m_PrefabAsset: {fileID: 0}
  m_GameObject: {fileID: 2029807243566579726}
  m_Enabled: 1
  serializedVersion: 3
  m_Shape: 0
  m_Extents: {x: 0.21, y: 4.716, z: 0.21}
  m_MoveThreshold: 0.1
  m_Carve: 1
  m_CarveOnlyStationary: 1
  m_Center: {x: -0.04, y: 3.2530003, z: -0.01}
  m_TimeToStationary: 0.5
