%YAML 1.1
%TAG !u! tag:unity3d.com,2011:
--- !u!1001 &3889163905444577249
PrefabInstance:
  m_ObjectHideFlags: 0
  serializedVersion: 2
  m_Modification:
    serializedVersion: 3
    m_TransformParent: {fileID: 0}
    m_Modifications:
    - target: {fileID: 182382, guid: 76be61eeff2e7164cb99e1cf8cf0c22b, type: 3}
      propertyPath: m_Name
      value: Tree_Cone_Winter_4
      objectReference: {fileID: 0}
    - target: {fileID: 182382, guid: 76be61eeff2e7164cb99e1cf8cf0c22b, type: 3}
      propertyPath: m_Layer
      value: 0
      objectReference: {fileID: 0}
    - target: {fileID: 494376, guid: 76be61eeff2e7164cb99e1cf8cf0c22b, type: 3}
      propertyPath: m_RootOrder
      value: 23
      objectReference: {fileID: 0}
    - target: {fileID: 494376, guid: 76be61eeff2e7164cb99e1cf8cf0c22b, type: 3}
      propertyPath: m_LocalScale.x
      value: 3
      objectReference: {fileID: 0}
    - target: {fileID: 494376, guid: 76be61eeff2e7164cb99e1cf8cf0c22b, type: 3}
      propertyPath: m_LocalScale.y
      value: 3
      objectReference: {fileID: 0}
    - target: {fileID: 494376, guid: 76be61eeff2e7164cb99e1cf8cf0c22b, type: 3}
      propertyPath: m_LocalScale.z
      value: 3
      objectReference: {fileID: 0}
    - target: {fileID: 494376, guid: 76be61eeff2e7164cb99e1cf8cf0c22b, type: 3}
      propertyPath: m_LocalPosition.x
      value: 1872.9332
      objectReference: {fileID: 0}
    - target: {fileID: 494376, guid: 76be61eeff2e7164cb99e1cf8cf0c22b, type: 3}
      propertyPath: m_LocalPosition.y
      value: 249.3995
      objectReference: {fileID: 0}
    - target: {fileID: 494376, guid: 76be61eeff2e7164cb99e1cf8cf0c22b, type: 3}
      propertyPath: m_LocalPosition.z
      value: -744.6768
      objectReference: {fileID: 0}
    - target: {fileID: 494376, guid: 76be61eeff2e7164cb99e1cf8cf0c22b, type: 3}
      propertyPath: m_LocalRotation.w
      value: 1
      objectReference: {fileID: 0}
    - target: {fileID: 494376, guid: 76be61eeff2e7164cb99e1cf8cf0c22b, type: 3}
      propertyPath: m_LocalRotation.x
      value: 0.0000000218557
      objectReference: {fileID: 0}
    - target: {fileID: 494376, guid: 76be61eeff2e7164cb99e1cf8cf0c22b, type: 3}
      propertyPath: m_LocalRotation.y
      value: -0
      objectReference: {fileID: 0}
    - target: {fileID: 494376, guid: 76be61eeff2e7164cb99e1cf8cf0c22b, type: 3}
      propertyPath: m_LocalRotation.z
      value: -0
      objectReference: {fileID: 0}
    - target: {fileID: 494376, guid: 76be61eeff2e7164cb99e1cf8cf0c22b, type: 3}
      propertyPath: m_LocalEulerAnglesHint.x
      value: 0
      objectReference: {fileID: 0}
    - target: {fileID: 494376, guid: 76be61eeff2e7164cb99e1cf8cf0c22b, type: 3}
      propertyPath: m_LocalEulerAnglesHint.y
      value: 0
      objectReference: {fileID: 0}
    - target: {fileID: 494376, guid: 76be61eeff2e7164cb99e1cf8cf0c22b, type: 3}
      propertyPath: m_LocalEulerAnglesHint.z
      value: 0
      objectReference: {fileID: 0}
    - target: {fileID: 494376, guid: 76be61eeff2e7164cb99e1cf8cf0c22b, type: 3}
      propertyPath: m_ConstrainProportionsScale
      value: 1
      objectReference: {fileID: 0}
    - target: {fileID: 2343136, guid: 76be61eeff2e7164cb99e1cf8cf0c22b, type: 3}
      propertyPath: m_Materials.Array.data[0]
      value: 
      objectReference: {fileID: 2100000, guid: 5bc7dc08548c7e34490b5119149529fe, type: 2}
    m_RemovedComponents: []
    m_RemovedGameObjects: []
    m_AddedGameObjects: []
    m_AddedComponents:
    - targetCorrespondingSourceObject: {fileID: 182382, guid: 76be61eeff2e7164cb99e1cf8cf0c22b, type: 3}
      insertIndex: -1
      addedObject: {fileID: 9141686678605588809}
    - targetCorrespondingSourceObject: {fileID: 182382, guid: 76be61eeff2e7164cb99e1cf8cf0c22b, type: 3}
      insertIndex: -1
      addedObject: {fileID: 1367381508925298700}
    - targetCorrespondingSourceObject: {fileID: 182382, guid: 76be61eeff2e7164cb99e1cf8cf0c22b, type: 3}
      insertIndex: -1
      addedObject: {fileID: -4688180581750184997}
  m_SourcePrefab: {fileID: 100100000, guid: 76be61eeff2e7164cb99e1cf8cf0c22b, type: 3}
--- !u!1 &3889163905444460431 stripped
GameObject:
  m_CorrespondingSourceObject: {fileID: 182382, guid: 76be61eeff2e7164cb99e1cf8cf0c22b, type: 3}
  m_PrefabInstance: {fileID: 3889163905444577249}
  m_PrefabAsset: {fileID: 0}
--- !u!64 &9141686678605588809
MeshCollider:
  m_ObjectHideFlags: 0
  m_CorrespondingSourceObject: {fileID: 0}
  m_PrefabInstance: {fileID: 0}
  m_PrefabAsset: {fileID: 0}
  m_GameObject: {fileID: 3889163905444460431}
  m_Material: {fileID: 0}
  m_IncludeLayers:
    serializedVersion: 2
    m_Bits: 0
  m_ExcludeLayers:
    serializedVersion: 2
    m_Bits: 0
  m_LayerOverridePriority: 0
  m_IsTrigger: 0
  m_ProvidesContacts: 0
  m_Enabled: 1
  serializedVersion: 5
  m_Convex: 0
  m_CookingOptions: 30
  m_Mesh: {fileID: 4300000, guid: f6c597498257ae843adeb6a76dd3013e, type: 3}
--- !u!114 &1367381508925298700
MonoBehaviour:
  m_ObjectHideFlags: 0
  m_CorrespondingSourceObject: {fileID: 0}
  m_PrefabInstance: {fileID: 0}
  m_PrefabAsset: {fileID: 0}
  m_GameObject: {fileID: 3889163905444460431}
  m_Enabled: 1
  m_EditorHideFlags: 0
  m_Script: {fileID: 11500000, guid: b01f76f577320124d98d0586ba69b51b, type: 3}
  m_Name: 
  m_EditorClassIdentifier: 
  preventCollision: 1
--- !u!208 &-4688180581750184997
NavMeshObstacle:
  m_ObjectHideFlags: 0
  m_CorrespondingSourceObject: {fileID: 0}
  m_PrefabInstance: {fileID: 0}
  m_PrefabAsset: {fileID: 0}
  m_GameObject: {fileID: 3889163905444460431}
  m_Enabled: 1
  serializedVersion: 3
  m_Shape: 0
  m_Extents: {x: 0.16, y: 4.9550004, z: 0.16}
  m_MoveThreshold: 0.1
  m_Carve: 1
  m_CarveOnlyStationary: 1
  m_Center: {x: 0, y: 4.947, z: 0}
  m_TimeToStationary: 0.5
