%YAML 1.1
%TAG !u! tag:unity3d.com,2011:
--- !u!1001 &9055674768686775648
PrefabInstance:
  m_ObjectHideFlags: 0
  serializedVersion: 2
  m_Modification:
    serializedVersion: 3
    m_TransformParent: {fileID: 0}
    m_Modifications:
    - target: {fileID: 188992, guid: 11d469914a0208343b39f04223416f9c, type: 3}
      propertyPath: m_Name
      value: Tree_Birch_0
      objectReference: {fileID: 0}
    - target: {fileID: 188992, guid: 11d469914a0208343b39f04223416f9c, type: 3}
      propertyPath: m_Layer
      value: 0
      objectReference: {fileID: 0}
    - target: {fileID: 405608, guid: 11d469914a0208343b39f04223416f9c, type: 3}
      propertyPath: m_RootOrder
      value: 36
      objectReference: {fileID: 0}
    - target: {fileID: 405608, guid: 11d469914a0208343b39f04223416f9c, type: 3}
      propertyPath: m_LocalScale.x
      value: 3
      objectReference: {fileID: 0}
    - target: {fileID: 405608, guid: 11d469914a0208343b39f04223416f9c, type: 3}
      propertyPath: m_LocalScale.y
      value: 3
      objectReference: {fileID: 0}
    - target: {fileID: 405608, guid: 11d469914a0208343b39f04223416f9c, type: 3}
      propertyPath: m_LocalScale.z
      value: 3
      objectReference: {fileID: 0}
    - target: {fileID: 405608, guid: 11d469914a0208343b39f04223416f9c, type: 3}
      propertyPath: m_LocalPosition.x
      value: 1794.1915
      objectReference: {fileID: 0}
    - target: {fileID: 405608, guid: 11d469914a0208343b39f04223416f9c, type: 3}
      propertyPath: m_LocalPosition.y
      value: 250.09546
      objectReference: {fileID: 0}
    - target: {fileID: 405608, guid: 11d469914a0208343b39f04223416f9c, type: 3}
      propertyPath: m_LocalPosition.z
      value: -706.5898
      objectReference: {fileID: 0}
    - target: {fileID: 405608, guid: 11d469914a0208343b39f04223416f9c, type: 3}
      propertyPath: m_LocalRotation.w
      value: 1
      objectReference: {fileID: 0}
    - target: {fileID: 405608, guid: 11d469914a0208343b39f04223416f9c, type: 3}
      propertyPath: m_LocalRotation.x
      value: 0.0000000218557
      objectReference: {fileID: 0}
    - target: {fileID: 405608, guid: 11d469914a0208343b39f04223416f9c, type: 3}
      propertyPath: m_LocalRotation.y
      value: -0
      objectReference: {fileID: 0}
    - target: {fileID: 405608, guid: 11d469914a0208343b39f04223416f9c, type: 3}
      propertyPath: m_LocalRotation.z
      value: -0
      objectReference: {fileID: 0}
    - target: {fileID: 405608, guid: 11d469914a0208343b39f04223416f9c, type: 3}
      propertyPath: m_LocalEulerAnglesHint.x
      value: 0
      objectReference: {fileID: 0}
    - target: {fileID: 405608, guid: 11d469914a0208343b39f04223416f9c, type: 3}
      propertyPath: m_LocalEulerAnglesHint.y
      value: 0
      objectReference: {fileID: 0}
    - target: {fileID: 405608, guid: 11d469914a0208343b39f04223416f9c, type: 3}
      propertyPath: m_LocalEulerAnglesHint.z
      value: 0
      objectReference: {fileID: 0}
    - target: {fileID: 405608, guid: 11d469914a0208343b39f04223416f9c, type: 3}
      propertyPath: m_ConstrainProportionsScale
      value: 1
      objectReference: {fileID: 0}
    m_RemovedComponents: []
    m_RemovedGameObjects: []
    m_AddedGameObjects: []
    m_AddedComponents:
    - targetCorrespondingSourceObject: {fileID: 188992, guid: 11d469914a0208343b39f04223416f9c, type: 3}
      insertIndex: -1
      addedObject: {fileID: 370365267817830800}
    - targetCorrespondingSourceObject: {fileID: 188992, guid: 11d469914a0208343b39f04223416f9c, type: 3}
      insertIndex: -1
      addedObject: {fileID: 1749405562505038726}
    - targetCorrespondingSourceObject: {fileID: 188992, guid: 11d469914a0208343b39f04223416f9c, type: 3}
      insertIndex: -1
      addedObject: {fileID: -5453931992489842465}
  m_SourcePrefab: {fileID: 100100000, guid: 11d469914a0208343b39f04223416f9c, type: 3}
--- !u!1 &9055674768686587680 stripped
GameObject:
  m_CorrespondingSourceObject: {fileID: 188992, guid: 11d469914a0208343b39f04223416f9c, type: 3}
  m_PrefabInstance: {fileID: 9055674768686775648}
  m_PrefabAsset: {fileID: 0}
--- !u!64 &370365267817830800
MeshCollider:
  m_ObjectHideFlags: 0
  m_CorrespondingSourceObject: {fileID: 0}
  m_PrefabInstance: {fileID: 0}
  m_PrefabAsset: {fileID: 0}
  m_GameObject: {fileID: 9055674768686587680}
  m_Material: {fileID: 0}
  m_IncludeLayers:
    serializedVersion: 2
    m_Bits: 0
  m_ExcludeLayers:
    serializedVersion: 2
    m_Bits: 0
  m_LayerOverridePriority: 0
  m_IsTrigger: 0
  m_ProvidesContacts: 0
  m_Enabled: 1
  serializedVersion: 5
  m_Convex: 0
  m_CookingOptions: 30
  m_Mesh: {fileID: 4300000, guid: dfc73e1f73ca4d64da934fb2dcb38e9d, type: 3}
--- !u!114 &1749405562505038726
MonoBehaviour:
  m_ObjectHideFlags: 0
  m_CorrespondingSourceObject: {fileID: 0}
  m_PrefabInstance: {fileID: 0}
  m_PrefabAsset: {fileID: 0}
  m_GameObject: {fileID: 9055674768686587680}
  m_Enabled: 1
  m_EditorHideFlags: 0
  m_Script: {fileID: 11500000, guid: b01f76f577320124d98d0586ba69b51b, type: 3}
  m_Name: 
  m_EditorClassIdentifier: 
  preventCollision: 1
--- !u!208 &-5453931992489842465
NavMeshObstacle:
  m_ObjectHideFlags: 0
  m_CorrespondingSourceObject: {fileID: 0}
  m_PrefabInstance: {fileID: 0}
  m_PrefabAsset: {fileID: 0}
  m_GameObject: {fileID: 9055674768686587680}
  m_Enabled: 1
  serializedVersion: 3
  m_Shape: 0
  m_Extents: {x: 0.06, y: 1.32, z: 0.06}
  m_MoveThreshold: 0.1
  m_Carve: 1
  m_CarveOnlyStationary: 1
  m_Center: {x: 0.01, y: 1.3000001, z: 0.01}
  m_TimeToStationary: 0.5
