%YAML 1.1
%TAG !u! tag:unity3d.com,2011:
--- !u!1001 &913357625334314566
PrefabInstance:
  m_ObjectHideFlags: 0
  serializedVersion: 2
  m_Modification:
    serializedVersion: 3
    m_TransformParent: {fileID: 0}
    m_Modifications:
    - target: {fileID: 185286, guid: 8ed1fa325ca228645ad26dd6eff14768, type: 3}
      propertyPath: m_Name
      value: Tree_Cone_3
      objectReference: {fileID: 0}
    - target: {fileID: 185286, guid: 8ed1fa325ca228645ad26dd6eff14768, type: 3}
      propertyPath: m_Layer
      value: 0
      objectReference: {fileID: 0}
    - target: {fileID: 470440, guid: 8ed1fa325ca228645ad26dd6eff14768, type: 3}
      propertyPath: m_RootOrder
      value: 29
      objectReference: {fileID: 0}
    - target: {fileID: 470440, guid: 8ed1fa325ca228645ad26dd6eff14768, type: 3}
      propertyPath: m_LocalScale.x
      value: 3
      objectReference: {fileID: 0}
    - target: {fileID: 470440, guid: 8ed1fa325ca228645ad26dd6eff14768, type: 3}
      propertyPath: m_LocalScale.y
      value: 3
      objectReference: {fileID: 0}
    - target: {fileID: 470440, guid: 8ed1fa325ca228645ad26dd6eff14768, type: 3}
      propertyPath: m_LocalScale.z
      value: 3
      objectReference: {fileID: 0}
    - target: {fileID: 470440, guid: 8ed1fa325ca228645ad26dd6eff14768, type: 3}
      propertyPath: m_LocalPosition.x
      value: 1856.3728
      objectReference: {fileID: 0}
    - target: {fileID: 470440, guid: 8ed1fa325ca228645ad26dd6eff14768, type: 3}
      propertyPath: m_LocalPosition.y
      value: 249.3991
      objectReference: {fileID: 0}
    - target: {fileID: 470440, guid: 8ed1fa325ca228645ad26dd6eff14768, type: 3}
      propertyPath: m_LocalPosition.z
      value: -725.536
      objectReference: {fileID: 0}
    - target: {fileID: 470440, guid: 8ed1fa325ca228645ad26dd6eff14768, type: 3}
      propertyPath: m_LocalRotation.w
      value: 1
      objectReference: {fileID: 0}
    - target: {fileID: 470440, guid: 8ed1fa325ca228645ad26dd6eff14768, type: 3}
      propertyPath: m_LocalRotation.x
      value: 0.0000000218557
      objectReference: {fileID: 0}
    - target: {fileID: 470440, guid: 8ed1fa325ca228645ad26dd6eff14768, type: 3}
      propertyPath: m_LocalRotation.y
      value: -0
      objectReference: {fileID: 0}
    - target: {fileID: 470440, guid: 8ed1fa325ca228645ad26dd6eff14768, type: 3}
      propertyPath: m_LocalRotation.z
      value: -0
      objectReference: {fileID: 0}
    - target: {fileID: 470440, guid: 8ed1fa325ca228645ad26dd6eff14768, type: 3}
      propertyPath: m_LocalEulerAnglesHint.x
      value: 0
      objectReference: {fileID: 0}
    - target: {fileID: 470440, guid: 8ed1fa325ca228645ad26dd6eff14768, type: 3}
      propertyPath: m_LocalEulerAnglesHint.y
      value: 0
      objectReference: {fileID: 0}
    - target: {fileID: 470440, guid: 8ed1fa325ca228645ad26dd6eff14768, type: 3}
      propertyPath: m_LocalEulerAnglesHint.z
      value: 0
      objectReference: {fileID: 0}
    - target: {fileID: 470440, guid: 8ed1fa325ca228645ad26dd6eff14768, type: 3}
      propertyPath: m_ConstrainProportionsScale
      value: 1
      objectReference: {fileID: 0}
    m_RemovedComponents: []
    m_RemovedGameObjects: []
    m_AddedGameObjects: []
    m_AddedComponents:
    - targetCorrespondingSourceObject: {fileID: 185286, guid: 8ed1fa325ca228645ad26dd6eff14768, type: 3}
      insertIndex: -1
      addedObject: {fileID: 1776838876163848176}
    - targetCorrespondingSourceObject: {fileID: 185286, guid: 8ed1fa325ca228645ad26dd6eff14768, type: 3}
      insertIndex: -1
      addedObject: {fileID: 938325092597542938}
    - targetCorrespondingSourceObject: {fileID: 185286, guid: 8ed1fa325ca228645ad26dd6eff14768, type: 3}
      insertIndex: -1
      addedObject: {fileID: -5832699100555510974}
  m_SourcePrefab: {fileID: 100100000, guid: 8ed1fa325ca228645ad26dd6eff14768, type: 3}
--- !u!1 &913357625334228352 stripped
GameObject:
  m_CorrespondingSourceObject: {fileID: 185286, guid: 8ed1fa325ca228645ad26dd6eff14768, type: 3}
  m_PrefabInstance: {fileID: 913357625334314566}
  m_PrefabAsset: {fileID: 0}
--- !u!64 &1776838876163848176
MeshCollider:
  m_ObjectHideFlags: 0
  m_CorrespondingSourceObject: {fileID: 0}
  m_PrefabInstance: {fileID: 0}
  m_PrefabAsset: {fileID: 0}
  m_GameObject: {fileID: 913357625334228352}
  m_Material: {fileID: 0}
  m_IncludeLayers:
    serializedVersion: 2
    m_Bits: 0
  m_ExcludeLayers:
    serializedVersion: 2
    m_Bits: 0
  m_LayerOverridePriority: 0
  m_IsTrigger: 0
  m_ProvidesContacts: 0
  m_Enabled: 1
  serializedVersion: 5
  m_Convex: 0
  m_CookingOptions: 30
  m_Mesh: {fileID: 4300000, guid: 0ddb82da3485fac4dbfe187acb70a610, type: 3}
--- !u!114 &938325092597542938
MonoBehaviour:
  m_ObjectHideFlags: 0
  m_CorrespondingSourceObject: {fileID: 0}
  m_PrefabInstance: {fileID: 0}
  m_PrefabAsset: {fileID: 0}
  m_GameObject: {fileID: 913357625334228352}
  m_Enabled: 1
  m_EditorHideFlags: 0
  m_Script: {fileID: 11500000, guid: b01f76f577320124d98d0586ba69b51b, type: 3}
  m_Name: 
  m_EditorClassIdentifier: 
  preventCollision: 1
--- !u!208 &-5832699100555510974
NavMeshObstacle:
  m_ObjectHideFlags: 0
  m_CorrespondingSourceObject: {fileID: 0}
  m_PrefabInstance: {fileID: 0}
  m_PrefabAsset: {fileID: 0}
  m_GameObject: {fileID: 913357625334228352}
  m_Enabled: 1
  serializedVersion: 3
  m_Shape: 0
  m_Extents: {x: 0.16, y: 3.2900002, z: 0.16}
  m_MoveThreshold: 0.1
  m_Carve: 1
  m_CarveOnlyStationary: 1
  m_Center: {x: 0, y: 3.2810001, z: 0}
  m_TimeToStationary: 0.5
