%YAML 1.1
%TAG !u! tag:unity3d.com,2011:
--- !u!1001 &6746738221196250240
PrefabInstance:
  m_ObjectHideFlags: 0
  serializedVersion: 2
  m_Modification:
    serializedVersion: 3
    m_TransformParent: {fileID: 0}
    m_Modifications:
    - target: {fileID: 127928, guid: eed418c5a3c80d448b4cdbe594ebe3c5, type: 3}
      propertyPath: m_Name
      value: Tree_Mangrove_3
      objectReference: {fileID: 0}
    - target: {fileID: 127928, guid: eed418c5a3c80d448b4cdbe594ebe3c5, type: 3}
      propertyPath: m_Layer
      value: 0
      objectReference: {fileID: 0}
    - target: {fileID: 488714, guid: eed418c5a3c80d448b4cdbe594ebe3c5, type: 3}
      propertyPath: m_RootOrder
      value: 19
      objectReference: {fileID: 0}
    - target: {fileID: 488714, guid: eed418c5a3c80d448b4cdbe594ebe3c5, type: 3}
      propertyPath: m_LocalScale.x
      value: 3
      objectReference: {fileID: 0}
    - target: {fileID: 488714, guid: eed418c5a3c80d448b4cdbe594ebe3c5, type: 3}
      propertyPath: m_LocalScale.y
      value: 3
      objectReference: {fileID: 0}
    - target: {fileID: 488714, guid: eed418c5a3c80d448b4cdbe594ebe3c5, type: 3}
      propertyPath: m_LocalScale.z
      value: 3
      objectReference: {fileID: 0}
    - target: {fileID: 488714, guid: eed418c5a3c80d448b4cdbe594ebe3c5, type: 3}
      propertyPath: m_LocalPosition.x
      value: 1885.2052
      objectReference: {fileID: 0}
    - target: {fileID: 488714, guid: eed418c5a3c80d448b4cdbe594ebe3c5, type: 3}
      propertyPath: m_LocalPosition.y
      value: 249.55276
      objectReference: {fileID: 0}
    - target: {fileID: 488714, guid: eed418c5a3c80d448b4cdbe594ebe3c5, type: 3}
      propertyPath: m_LocalPosition.z
      value: -762.25397
      objectReference: {fileID: 0}
    - target: {fileID: 488714, guid: eed418c5a3c80d448b4cdbe594ebe3c5, type: 3}
      propertyPath: m_LocalRotation.w
      value: 1
      objectReference: {fileID: 0}
    - target: {fileID: 488714, guid: eed418c5a3c80d448b4cdbe594ebe3c5, type: 3}
      propertyPath: m_LocalRotation.x
      value: 0.0000000218557
      objectReference: {fileID: 0}
    - target: {fileID: 488714, guid: eed418c5a3c80d448b4cdbe594ebe3c5, type: 3}
      propertyPath: m_LocalRotation.y
      value: -0
      objectReference: {fileID: 0}
    - target: {fileID: 488714, guid: eed418c5a3c80d448b4cdbe594ebe3c5, type: 3}
      propertyPath: m_LocalRotation.z
      value: -0
      objectReference: {fileID: 0}
    - target: {fileID: 488714, guid: eed418c5a3c80d448b4cdbe594ebe3c5, type: 3}
      propertyPath: m_LocalEulerAnglesHint.x
      value: 0
      objectReference: {fileID: 0}
    - target: {fileID: 488714, guid: eed418c5a3c80d448b4cdbe594ebe3c5, type: 3}
      propertyPath: m_LocalEulerAnglesHint.y
      value: 0
      objectReference: {fileID: 0}
    - target: {fileID: 488714, guid: eed418c5a3c80d448b4cdbe594ebe3c5, type: 3}
      propertyPath: m_LocalEulerAnglesHint.z
      value: 0
      objectReference: {fileID: 0}
    - target: {fileID: 488714, guid: eed418c5a3c80d448b4cdbe594ebe3c5, type: 3}
      propertyPath: m_ConstrainProportionsScale
      value: 1
      objectReference: {fileID: 0}
    m_RemovedComponents: []
    m_RemovedGameObjects: []
    m_AddedGameObjects: []
    m_AddedComponents:
    - targetCorrespondingSourceObject: {fileID: 127928, guid: eed418c5a3c80d448b4cdbe594ebe3c5, type: 3}
      insertIndex: -1
      addedObject: {fileID: 5693314142467818483}
    - targetCorrespondingSourceObject: {fileID: 127928, guid: eed418c5a3c80d448b4cdbe594ebe3c5, type: 3}
      insertIndex: -1
      addedObject: {fileID: 6862444601113140847}
    - targetCorrespondingSourceObject: {fileID: 127928, guid: eed418c5a3c80d448b4cdbe594ebe3c5, type: 3}
      insertIndex: -1
      addedObject: {fileID: -4985720926682159697}
  m_SourcePrefab: {fileID: 100100000, guid: eed418c5a3c80d448b4cdbe594ebe3c5, type: 3}
--- !u!1 &6746738221196377912 stripped
GameObject:
  m_CorrespondingSourceObject: {fileID: 127928, guid: eed418c5a3c80d448b4cdbe594ebe3c5, type: 3}
  m_PrefabInstance: {fileID: 6746738221196250240}
  m_PrefabAsset: {fileID: 0}
--- !u!64 &5693314142467818483
MeshCollider:
  m_ObjectHideFlags: 0
  m_CorrespondingSourceObject: {fileID: 0}
  m_PrefabInstance: {fileID: 0}
  m_PrefabAsset: {fileID: 0}
  m_GameObject: {fileID: 6746738221196377912}
  m_Material: {fileID: 0}
  m_IncludeLayers:
    serializedVersion: 2
    m_Bits: 0
  m_ExcludeLayers:
    serializedVersion: 2
    m_Bits: 0
  m_LayerOverridePriority: 0
  m_IsTrigger: 0
  m_ProvidesContacts: 0
  m_Enabled: 1
  serializedVersion: 5
  m_Convex: 0
  m_CookingOptions: 30
  m_Mesh: {fileID: 4300000, guid: 66f0726e43c72a94aa9dc7aa4b6cbfe0, type: 3}
--- !u!114 &6862444601113140847
MonoBehaviour:
  m_ObjectHideFlags: 0
  m_CorrespondingSourceObject: {fileID: 0}
  m_PrefabInstance: {fileID: 0}
  m_PrefabAsset: {fileID: 0}
  m_GameObject: {fileID: 6746738221196377912}
  m_Enabled: 1
  m_EditorHideFlags: 0
  m_Script: {fileID: 11500000, guid: b01f76f577320124d98d0586ba69b51b, type: 3}
  m_Name: 
  m_EditorClassIdentifier: 
  preventCollision: 1
--- !u!208 &-4985720926682159697
NavMeshObstacle:
  m_ObjectHideFlags: 0
  m_CorrespondingSourceObject: {fileID: 0}
  m_PrefabInstance: {fileID: 0}
  m_PrefabAsset: {fileID: 0}
  m_GameObject: {fileID: 6746738221196377912}
  m_Enabled: 1
  serializedVersion: 3
  m_Shape: 1
  m_Extents: {x: 0.81, y: 3.505, z: 0.31}
  m_MoveThreshold: 0.1
  m_Carve: 1
  m_CarveOnlyStationary: 1
  m_Center: {x: -0.35, y: 3.4440002, z: 0}
  m_TimeToStationary: 0.5
