%YAML 1.1
%TAG !u! tag:unity3d.com,2011:
--- !u!1001 &1638212880512060289
PrefabInstance:
  m_ObjectHideFlags: 0
  serializedVersion: 2
  m_Modification:
    serializedVersion: 3
    m_TransformParent: {fileID: 0}
    m_Modifications:
    - target: {fileID: 176282, guid: ac00d368a6864c04791bc85c5567bd51, type: 3}
      propertyPath: m_Name
      value: Tree_Mangrove_1
      objectReference: {fileID: 0}
    - target: {fileID: 176282, guid: ac00d368a6864c04791bc85c5567bd51, type: 3}
      propertyPath: m_Layer
      value: 0
      objectReference: {fileID: 0}
    - target: {fileID: 446924, guid: ac00d368a6864c04791bc85c5567bd51, type: 3}
      propertyPath: m_RootOrder
      value: 21
      objectReference: {fileID: 0}
    - target: {fileID: 446924, guid: ac00d368a6864c04791bc85c5567bd51, type: 3}
      propertyPath: m_LocalScale.x
      value: 3
      objectReference: {fileID: 0}
    - target: {fileID: 446924, guid: ac00d368a6864c04791bc85c5567bd51, type: 3}
      propertyPath: m_LocalScale.y
      value: 3
      objectReference: {fileID: 0}
    - target: {fileID: 446924, guid: ac00d368a6864c04791bc85c5567bd51, type: 3}
      propertyPath: m_LocalScale.z
      value: 3
      objectReference: {fileID: 0}
    - target: {fileID: 446924, guid: ac00d368a6864c04791bc85c5567bd51, type: 3}
      propertyPath: m_LocalPosition.x
      value: 1853.4933
      objectReference: {fileID: 0}
    - target: {fileID: 446924, guid: ac00d368a6864c04791bc85c5567bd51, type: 3}
      propertyPath: m_LocalPosition.y
      value: 249.96748
      objectReference: {fileID: 0}
    - target: {fileID: 446924, guid: ac00d368a6864c04791bc85c5567bd51, type: 3}
      propertyPath: m_LocalPosition.z
      value: -757.8635
      objectReference: {fileID: 0}
    - target: {fileID: 446924, guid: ac00d368a6864c04791bc85c5567bd51, type: 3}
      propertyPath: m_LocalRotation.w
      value: 1
      objectReference: {fileID: 0}
    - target: {fileID: 446924, guid: ac00d368a6864c04791bc85c5567bd51, type: 3}
      propertyPath: m_LocalRotation.x
      value: 0.0000000218557
      objectReference: {fileID: 0}
    - target: {fileID: 446924, guid: ac00d368a6864c04791bc85c5567bd51, type: 3}
      propertyPath: m_LocalRotation.y
      value: -0
      objectReference: {fileID: 0}
    - target: {fileID: 446924, guid: ac00d368a6864c04791bc85c5567bd51, type: 3}
      propertyPath: m_LocalRotation.z
      value: -0
      objectReference: {fileID: 0}
    - target: {fileID: 446924, guid: ac00d368a6864c04791bc85c5567bd51, type: 3}
      propertyPath: m_LocalEulerAnglesHint.x
      value: 0
      objectReference: {fileID: 0}
    - target: {fileID: 446924, guid: ac00d368a6864c04791bc85c5567bd51, type: 3}
      propertyPath: m_LocalEulerAnglesHint.y
      value: 0
      objectReference: {fileID: 0}
    - target: {fileID: 446924, guid: ac00d368a6864c04791bc85c5567bd51, type: 3}
      propertyPath: m_LocalEulerAnglesHint.z
      value: 0
      objectReference: {fileID: 0}
    - target: {fileID: 446924, guid: ac00d368a6864c04791bc85c5567bd51, type: 3}
      propertyPath: m_ConstrainProportionsScale
      value: 1
      objectReference: {fileID: 0}
    m_RemovedComponents: []
    m_RemovedGameObjects: []
    m_AddedGameObjects: []
    m_AddedComponents:
    - targetCorrespondingSourceObject: {fileID: 176282, guid: ac00d368a6864c04791bc85c5567bd51, type: 3}
      insertIndex: -1
      addedObject: {fileID: 1070967749534107031}
    - targetCorrespondingSourceObject: {fileID: 176282, guid: ac00d368a6864c04791bc85c5567bd51, type: 3}
      insertIndex: -1
      addedObject: {fileID: 5911674701205376528}
    - targetCorrespondingSourceObject: {fileID: 176282, guid: ac00d368a6864c04791bc85c5567bd51, type: 3}
      insertIndex: -1
      addedObject: {fileID: 7515116311903196765}
  m_SourcePrefab: {fileID: 100100000, guid: ac00d368a6864c04791bc85c5567bd51, type: 3}
--- !u!1 &1638212880512236315 stripped
GameObject:
  m_CorrespondingSourceObject: {fileID: 176282, guid: ac00d368a6864c04791bc85c5567bd51, type: 3}
  m_PrefabInstance: {fileID: 1638212880512060289}
  m_PrefabAsset: {fileID: 0}
--- !u!64 &1070967749534107031
MeshCollider:
  m_ObjectHideFlags: 0
  m_CorrespondingSourceObject: {fileID: 0}
  m_PrefabInstance: {fileID: 0}
  m_PrefabAsset: {fileID: 0}
  m_GameObject: {fileID: 1638212880512236315}
  m_Material: {fileID: 0}
  m_IncludeLayers:
    serializedVersion: 2
    m_Bits: 0
  m_ExcludeLayers:
    serializedVersion: 2
    m_Bits: 0
  m_LayerOverridePriority: 0
  m_IsTrigger: 0
  m_ProvidesContacts: 0
  m_Enabled: 1
  serializedVersion: 5
  m_Convex: 0
  m_CookingOptions: 30
  m_Mesh: {fileID: 4300000, guid: a502c85dd672f8d428b76fd14220881f, type: 3}
--- !u!114 &5911674701205376528
MonoBehaviour:
  m_ObjectHideFlags: 0
  m_CorrespondingSourceObject: {fileID: 0}
  m_PrefabInstance: {fileID: 0}
  m_PrefabAsset: {fileID: 0}
  m_GameObject: {fileID: 1638212880512236315}
  m_Enabled: 1
  m_EditorHideFlags: 0
  m_Script: {fileID: 11500000, guid: b01f76f577320124d98d0586ba69b51b, type: 3}
  m_Name: 
  m_EditorClassIdentifier: 
  preventCollision: 1
--- !u!208 &7515116311903196765
NavMeshObstacle:
  m_ObjectHideFlags: 0
  m_CorrespondingSourceObject: {fileID: 0}
  m_PrefabInstance: {fileID: 0}
  m_PrefabAsset: {fileID: 0}
  m_GameObject: {fileID: 1638212880512236315}
  m_Enabled: 1
  serializedVersion: 3
  m_Shape: 0
  m_Extents: {x: 0.26, y: 2.342, z: 0.26}
  m_MoveThreshold: 0.1
  m_Carve: 1
  m_CarveOnlyStationary: 1
  m_Center: {x: 0.05, y: 2.282, z: -0.02}
  m_TimeToStationary: 0.5
