%YAML 1.1
%TAG !u! tag:unity3d.com,2011:
--- !u!1001 &167420462015962361
PrefabInstance:
  m_ObjectHideFlags: 0
  serializedVersion: 2
  m_Modification:
    serializedVersion: 3
    m_TransformParent: {fileID: 0}
    m_Modifications:
    - target: {fileID: 1884263127011962435, guid: 5466be3b49e370b41835fcd09f1606b9, type: 3}
      propertyPath: m_Name
      value: Laptop Variant
      objectReference: {fileID: 0}
    - target: {fileID: 4925020292075308121, guid: 5466be3b49e370b41835fcd09f1606b9, type: 3}
      propertyPath: m_RootOrder
      value: -1
      objectReference: {fileID: 0}
    - target: {fileID: 4925020292075308121, guid: 5466be3b49e370b41835fcd09f1606b9, type: 3}
      propertyPath: m_LocalPosition.x
      value: -15.987
      objectReference: {fileID: 0}
    - target: {fileID: 4925020292075308121, guid: 5466be3b49e370b41835fcd09f1606b9, type: 3}
      propertyPath: m_LocalPosition.y
      value: -6.856
      objectReference: {fileID: 0}
    - target: {fileID: 4925020292075308121, guid: 5466be3b49e370b41835fcd09f1606b9, type: 3}
      propertyPath: m_LocalPosition.z
      value: -9.057
      objectReference: {fileID: 0}
    - target: {fileID: 4925020292075308121, guid: 5466be3b49e370b41835fcd09f1606b9, type: 3}
      propertyPath: m_LocalRotation.w
      value: 0.38269448
      objectReference: {fileID: 0}
    - target: {fileID: 4925020292075308121, guid: 5466be3b49e370b41835fcd09f1606b9, type: 3}
      propertyPath: m_LocalRotation.x
      value: -0
      objectReference: {fileID: 0}
    - target: {fileID: 4925020292075308121, guid: 5466be3b49e370b41835fcd09f1606b9, type: 3}
      propertyPath: m_LocalRotation.y
      value: 0.92387503
      objectReference: {fileID: 0}
    - target: {fileID: 4925020292075308121, guid: 5466be3b49e370b41835fcd09f1606b9, type: 3}
      propertyPath: m_LocalRotation.z
      value: -0
      objectReference: {fileID: 0}
    - target: {fileID: 4925020292075308121, guid: 5466be3b49e370b41835fcd09f1606b9, type: 3}
      propertyPath: m_LocalEulerAnglesHint.x
      value: 0
      objectReference: {fileID: 0}
    - target: {fileID: 4925020292075308121, guid: 5466be3b49e370b41835fcd09f1606b9, type: 3}
      propertyPath: m_LocalEulerAnglesHint.y
      value: 134.999
      objectReference: {fileID: 0}
    - target: {fileID: 4925020292075308121, guid: 5466be3b49e370b41835fcd09f1606b9, type: 3}
      propertyPath: m_LocalEulerAnglesHint.z
      value: 0
      objectReference: {fileID: 0}
    m_RemovedComponents: []
    m_RemovedGameObjects: []
    m_AddedGameObjects: []
    m_AddedComponents:
    - targetCorrespondingSourceObject: {fileID: 1884263127011962435, guid: 5466be3b49e370b41835fcd09f1606b9, type: 3}
      insertIndex: -1
      addedObject: {fileID: 7135785845193611013}
    - targetCorrespondingSourceObject: {fileID: 1884263127011962435, guid: 5466be3b49e370b41835fcd09f1606b9, type: 3}
      insertIndex: -1
      addedObject: {fileID: 6605060389960080294}
    - targetCorrespondingSourceObject: {fileID: 1884263127011962435, guid: 5466be3b49e370b41835fcd09f1606b9, type: 3}
      insertIndex: -1
      addedObject: {fileID: 5773856728779100516}
  m_SourcePrefab: {fileID: 100100000, guid: 5466be3b49e370b41835fcd09f1606b9, type: 3}
--- !u!1 &1762300884542157498 stripped
GameObject:
  m_CorrespondingSourceObject: {fileID: 1884263127011962435, guid: 5466be3b49e370b41835fcd09f1606b9, type: 3}
  m_PrefabInstance: {fileID: 167420462015962361}
  m_PrefabAsset: {fileID: 0}
--- !u!65 &7135785845193611013
BoxCollider:
  m_ObjectHideFlags: 0
  m_CorrespondingSourceObject: {fileID: 0}
  m_PrefabInstance: {fileID: 0}
  m_PrefabAsset: {fileID: 0}
  m_GameObject: {fileID: 1762300884542157498}
  m_Material: {fileID: 0}
  m_IncludeLayers:
    serializedVersion: 2
    m_Bits: 0
  m_ExcludeLayers:
    serializedVersion: 2
    m_Bits: 0
  m_LayerOverridePriority: 0
  m_IsTrigger: 0
  m_ProvidesContacts: 0
  m_Enabled: 1
  serializedVersion: 3
  m_Size: {x: 0.4833172, y: 0.037841626, z: 0.35996026}
  m_Center: {x: 0, y: 0.018578727, z: 0.0034374835}
--- !u!65 &6605060389960080294
BoxCollider:
  m_ObjectHideFlags: 0
  m_CorrespondingSourceObject: {fileID: 0}
  m_PrefabInstance: {fileID: 0}
  m_PrefabAsset: {fileID: 0}
  m_GameObject: {fileID: 1762300884542157498}
  m_Material: {fileID: 0}
  m_IncludeLayers:
    serializedVersion: 2
    m_Bits: 0
  m_ExcludeLayers:
    serializedVersion: 2
    m_Bits: 0
  m_LayerOverridePriority: 0
  m_IsTrigger: 0
  m_ProvidesContacts: 0
  m_Enabled: 1
  serializedVersion: 3
  m_Size: {x: 0.4833172, y: 0.40221864, z: 0.052413065}
  m_Center: {x: -0.0000017806717, y: 0.20076725, z: -0.17743218}
--- !u!54 &5773856728779100516
Rigidbody:
  m_ObjectHideFlags: 0
  m_CorrespondingSourceObject: {fileID: 0}
  m_PrefabInstance: {fileID: 0}
  m_PrefabAsset: {fileID: 0}
  m_GameObject: {fileID: 1762300884542157498}
  serializedVersion: 4
  m_Mass: 1
  m_Drag: 0
  m_AngularDrag: 0.05
  m_CenterOfMass: {x: 0, y: 0, z: 0}
  m_InertiaTensor: {x: 1, y: 1, z: 1}
  m_InertiaRotation: {x: 0, y: 0, z: 0, w: 1}
  m_IncludeLayers:
    serializedVersion: 2
    m_Bits: 0
  m_ExcludeLayers:
    serializedVersion: 2
    m_Bits: 0
  m_ImplicitCom: 1
  m_ImplicitTensor: 1
  m_UseGravity: 1
  m_IsKinematic: 0
  m_Interpolate: 0
  m_Constraints: 0
  m_CollisionDetection: 0
