%YAML 1.1
%TAG !u! tag:unity3d.com,2011:
--- !u!1001 &8652479427923567583
PrefabInstance:
  m_ObjectHideFlags: 0
  serializedVersion: 2
  m_Modification:
    serializedVersion: 3
    m_TransformParent: {fileID: 0}
    m_Modifications:
    - target: {fileID: 160260, guid: 36cf43d46aeb7494b82aa54d61da3bd7, type: 3}
      propertyPath: m_Name
      value: Rock_Type1_2
      objectReference: {fileID: 0}
    - target: {fileID: 160260, guid: 36cf43d46aeb7494b82aa54d61da3bd7, type: 3}
      propertyPath: m_Layer
      value: 0
      objectReference: {fileID: 0}
    - target: {fileID: 476412, guid: 36cf43d46aeb7494b82aa54d61da3bd7, type: 3}
      propertyPath: m_RootOrder
      value: 64
      objectReference: {fileID: 0}
    - target: {fileID: 476412, guid: 36cf43d46aeb7494b82aa54d61da3bd7, type: 3}
      propertyPath: m_LocalScale.x
      value: 1
      objectReference: {fileID: 0}
    - target: {fileID: 476412, guid: 36cf43d46aeb7494b82aa54d61da3bd7, type: 3}
      propertyPath: m_LocalScale.y
      value: 1
      objectReference: {fileID: 0}
    - target: {fileID: 476412, guid: 36cf43d46aeb7494b82aa54d61da3bd7, type: 3}
      propertyPath: m_LocalScale.z
      value: 1
      objectReference: {fileID: 0}
    - target: {fileID: 476412, guid: 36cf43d46aeb7494b82aa54d61da3bd7, type: 3}
      propertyPath: m_LocalPosition.x
      value: 1825.3323
      objectReference: {fileID: 0}
    - target: {fileID: 476412, guid: 36cf43d46aeb7494b82aa54d61da3bd7, type: 3}
      propertyPath: m_LocalPosition.y
      value: 249.28339
      objectReference: {fileID: 0}
    - target: {fileID: 476412, guid: 36cf43d46aeb7494b82aa54d61da3bd7, type: 3}
      propertyPath: m_LocalPosition.z
      value: -645.03815
      objectReference: {fileID: 0}
    - target: {fileID: 476412, guid: 36cf43d46aeb7494b82aa54d61da3bd7, type: 3}
      propertyPath: m_LocalRotation.w
      value: 1
      objectReference: {fileID: 0}
    - target: {fileID: 476412, guid: 36cf43d46aeb7494b82aa54d61da3bd7, type: 3}
      propertyPath: m_LocalRotation.x
      value: 0.0000000218557
      objectReference: {fileID: 0}
    - target: {fileID: 476412, guid: 36cf43d46aeb7494b82aa54d61da3bd7, type: 3}
      propertyPath: m_LocalRotation.y
      value: -0
      objectReference: {fileID: 0}
    - target: {fileID: 476412, guid: 36cf43d46aeb7494b82aa54d61da3bd7, type: 3}
      propertyPath: m_LocalRotation.z
      value: -0
      objectReference: {fileID: 0}
    - target: {fileID: 476412, guid: 36cf43d46aeb7494b82aa54d61da3bd7, type: 3}
      propertyPath: m_LocalEulerAnglesHint.x
      value: 0
      objectReference: {fileID: 0}
    - target: {fileID: 476412, guid: 36cf43d46aeb7494b82aa54d61da3bd7, type: 3}
      propertyPath: m_LocalEulerAnglesHint.y
      value: 0
      objectReference: {fileID: 0}
    - target: {fileID: 476412, guid: 36cf43d46aeb7494b82aa54d61da3bd7, type: 3}
      propertyPath: m_LocalEulerAnglesHint.z
      value: 0
      objectReference: {fileID: 0}
    - target: {fileID: 476412, guid: 36cf43d46aeb7494b82aa54d61da3bd7, type: 3}
      propertyPath: m_ConstrainProportionsScale
      value: 1
      objectReference: {fileID: 0}
    m_RemovedComponents: []
    m_RemovedGameObjects: []
    m_AddedGameObjects: []
    m_AddedComponents:
    - targetCorrespondingSourceObject: {fileID: 160260, guid: 36cf43d46aeb7494b82aa54d61da3bd7, type: 3}
      insertIndex: -1
      addedObject: {fileID: 5056572590426871516}
    - targetCorrespondingSourceObject: {fileID: 160260, guid: 36cf43d46aeb7494b82aa54d61da3bd7, type: 3}
      insertIndex: -1
      addedObject: {fileID: -1312368277797947267}
    - targetCorrespondingSourceObject: {fileID: 160260, guid: 36cf43d46aeb7494b82aa54d61da3bd7, type: 3}
      insertIndex: -1
      addedObject: {fileID: 3208395507033126850}
  m_SourcePrefab: {fileID: 100100000, guid: 36cf43d46aeb7494b82aa54d61da3bd7, type: 3}
--- !u!1 &8652479427923415515 stripped
GameObject:
  m_CorrespondingSourceObject: {fileID: 160260, guid: 36cf43d46aeb7494b82aa54d61da3bd7, type: 3}
  m_PrefabInstance: {fileID: 8652479427923567583}
  m_PrefabAsset: {fileID: 0}
--- !u!64 &5056572590426871516
MeshCollider:
  m_ObjectHideFlags: 0
  m_CorrespondingSourceObject: {fileID: 0}
  m_PrefabInstance: {fileID: 0}
  m_PrefabAsset: {fileID: 0}
  m_GameObject: {fileID: 8652479427923415515}
  m_Material: {fileID: 0}
  m_IncludeLayers:
    serializedVersion: 2
    m_Bits: 0
  m_ExcludeLayers:
    serializedVersion: 2
    m_Bits: 0
  m_LayerOverridePriority: 0
  m_IsTrigger: 0
  m_ProvidesContacts: 0
  m_Enabled: 1
  serializedVersion: 5
  m_Convex: 0
  m_CookingOptions: 30
  m_Mesh: {fileID: 4300000, guid: a797bea746bba59439067b50859ce461, type: 3}
--- !u!114 &-1312368277797947267
MonoBehaviour:
  m_ObjectHideFlags: 0
  m_CorrespondingSourceObject: {fileID: 0}
  m_PrefabInstance: {fileID: 0}
  m_PrefabAsset: {fileID: 0}
  m_GameObject: {fileID: 8652479427923415515}
  m_Enabled: 1
  m_EditorHideFlags: 0
  m_Script: {fileID: 11500000, guid: b01f76f577320124d98d0586ba69b51b, type: 3}
  m_Name: 
  m_EditorClassIdentifier: 
  preventCollision: 1
--- !u!208 &3208395507033126850
NavMeshObstacle:
  m_ObjectHideFlags: 0
  m_CorrespondingSourceObject: {fileID: 0}
  m_PrefabInstance: {fileID: 0}
  m_PrefabAsset: {fileID: 0}
  m_GameObject: {fileID: 8652479427923415515}
  m_Enabled: 1
  serializedVersion: 3
  m_Shape: 0
  m_Extents: {x: 0.75, y: 0.32900003, z: 0.75}
  m_MoveThreshold: 0.1
  m_Carve: 1
  m_CarveOnlyStationary: 1
  m_Center: {x: -0.049000002, y: 0.18900001, z: 0.021000002}
  m_TimeToStationary: 0.5
