%YAML 1.1
%TAG !u! tag:unity3d.com,2011:
--- !u!1045 &1
EditorBuildSettings:
  m_ObjectHideFlags: 0
  serializedVersion: 2
  m_Scenes:
  - enabled: 1
    path: Assets/Level/Scenes/MainMenu.unity
    guid: 0b163ddc09c06754c9d83b7c2bb2d671
  - enabled: 1
    path: Assets/Level/Scenes/MainScene.unity
    guid: 099e790d87931614d90e434988a05cd1
  m_configObjects: {}
